{
    "d2l_host": "0.0.0.0",
    "d2l_port": 7845,
    "d2l_key": "12341234123412341234123412341234",
    "d2l_iv": "FC91837FA2BDBA1F9FE985452FDB925E",
    "mqtt_host": "mosquitto",
    "mqtt_port": 1883
}