{
    "config": {
        "step": {
            "user": {
                "data": {
                    "emoncms": "emoncms"
                },
                "description": "Please select your device. You will be prompted to add any required secrets on the next page. You can add more than one device, but this must be done one at time.",
                "title": "Devices"
            },
            "secrets_emon": {
                "data": {
                    "emoncms_url": "emoncms_url",
                    "emoncms_api": "emoncms_api",
                    "add_another": "Add another device?"
                },
                "title": "Add your secret"
            },
            "secrets_victron": {
                "data": {
                    "victron_host": "victron_host",
                    "add_another": "Add another device?"
                },
                "title": "Add your secret"
            },
            "secrets_sunnyboy_battery": {
                "data": {
                    "sbs_host": "sbs_host",
                    "add_another": "Add another device?"
                },
                "title": "Add your secret"
            },
            "secrets_sunnyboy_pv": {
                "data": {
                    "sb_host": "sb_host",
                    "add_another": "Add another device?"
                },
                "title": "Add your secret"
            },
            "sb_auto_required": {
                "title": "Login",
                "description": "Do you know your login information?"
            }
        }
    }
}